Payroll Number,Salary Advance Amount
2024,3000
2146,2000
2360,1500
2388,3000
2392,2000
2393,3000
2400,1000
3012,2000
3359,1000
3371,5000
3427,2000
3438,2000
3468,1000
3550,2000
3557,2000
3632,1500
3641,4000
3648,3000
3705,2000
3746,3000
3753,2000
3832,3000
3910,5000
3929,2000
3993,2000
3994,3000
3995,3000
4062,2000
4166,0
4277,1000
4278,1000
4453,1000
2244,4000
2257,1500
2263,5000
2265,3000
2268,3000
2500,1500
2564,2000
2757,3000
2989,1000
3151,3000
3365,2000
3588,2000
3610,1500
3622,2000
3663,3000
3699,4000
3719,2000
3763,2000
3826,2000
3846,4000
4027,3000
4363,4000
2242,4000
2266,5000
2296,2500
2303,2000
2310,2000
2793,1500
3042,5000
3320,2000
3334,4000
3335,5000
3346,5000
3347,3000
3350,1500
3406,5000
3470,4000
3471,1000
3526,6000
3567,2000
3578,3000
3638,3000
3658,1000
3680,3000
3694,6000
3747,2000
3801,3000
3845,3000
3985,5000
4090,1000
4114,2000
4185,3500
4357,3500
4683,2000
4728,1000
4734,3500
2293,5000
2204,5000
2207,4000
2210,2000
2213,5000
2215,5200
2663,1500
2699,3000
2983,1500
3814,3000
3520,5000
3643,2000
4071,2500
3878,2000
4054,4000
3949,2000
4035,3000
4172,3000
4092,3000
3642,3000
4067,1000
4055,3000
4108,3000
4153,3000
